StoneSimulation,,StoneFirstOrder,,StoneSecondOrder,
0.11777456712985725,0.36812683908350285,0.13201321492598278,0.2895135364110166,0.10226749067693398,0.2881383369011868
0.11677353837774866,0.34890884197308597,0.1272452892987088,0.2719264139668227,0.10206310183889437,0.2758568521698348
0.11577145061611659,0.32755467136665173,0.12009406273874988,0.2468808387355426,0.10146396720096217,0.267316696798009
0.11337861859772007,0.3008706571154093,0.11671820513014468,0.23729377680617852,0.10006951641086544,0.25451024591714005
0.11178560352196308,0.28753167573128385,0.11294495419783808,0.22610761049629718,0.09887362990642891,0.2422363255395275
0.10820509232293736,0.26512908569656346,0.10857627516093162,0.21385789605065086,0.09708337430691609,0.23103503052216728
0.10522318625708212,0.25019856428566023,0.1038109970574664,0.20161120734650032,0.0948959901360827,0.21876867449829418
0.10025457832510078,0.22780656434617505,0.0996416765633628,0.19149615352612348,0.09290875876519486,0.2102391092217036
0.09568521698348699,0.21075197240523755,0.09487692796465932,0.18031755156998158,0.09012727025166603,0.1995794219320872
0.0855557908910052,0.17825248299911495,0.09011217936595586,0.16913894961383974,0.08754434602379743,0.18945226514572724
0.07622273996021148,0.15215546259805296,0.08495056694831275,0.15742933002518927,0.08416795891043047,0.1787971164683545
0.06986921232384509,0.13618257324185506,0.07919379117845066,0.14519020567477814,0.08098987133034287,0.16814045492023388
0.061729400373679064,0.11701903947836217,0.07204785966610942,0.1308254979235849,0.07741491993131565,0.1569527757396047
0.05120840550987525,0.09466939991981788,0.0680781624671896,0.12337914810248185,0.0726499065802313,0.14524013040945843
0.04386364495949288,0.07923811829136379,0.06331394337324789,0.11326863289434863,0.0684795270766042,0.13298890309306421
0.03493142913335197,0.06168276613287543,0.05993914477416622,0.10581774446100195,0.06490642894424313,0.12553952753046538
0.028381455230372384,0.04944969326545584,0.05497768515646864,0.09784491561963399,0.06014194509792055,0.1148949689483279
0.02401489421251295,0.04147232581184429,0.051603151309767836,0.09092807056029167,0.05557523128011557,0.10318081074743374
0.01865577651873312,0.03136634921595477,0.0488243103200478,0.08560881701071871,0.051009576471834114,0.09360282604255704
0.010121748273436256,0.017012231559996704,0.0438620564452076,0.07603385804733775,0.043863380207112,0.07870407491735942
0.0007942571426410167,0.0021301220130258702,0.03731261204698977,0.06486887192792684,0.03830543347529103,0.06753152444420912
,,0.03274748674347007,0.05635897397105882,0.03314488006717145,0.05795807835157607
,,0.025403785202611214,0.043063865838622095,0.02659517091657274,0.04625904885816079
,,0.01905290509005363,0.03243141022246765,0.02183174607977367,0.03775066377204067
,,0.012304366901413778,0.01966580685179159,0.014091445472356075,0.024458581381099687
,,0.0009922919235395115,0.0015945657682736036,0.007343172036097089,0.01222702138442805
,,,,0.000793992390260137,0.0015960786390215032
